\relax 
\citation{b1}
\@writefile{toc}{\contentsline {section}{\numberline {I}はじめに}{1}}
\@writefile{toc}{\contentsline {section}{\numberline {II}関連研究}{1}}
\@writefile{toc}{\contentsline {section}{\numberline {III}能動的振動入力による手先位置推定}{1}}
\@writefile{toc}{\contentsline {subsection}{\numberline {\unhbox \voidb@x \hbox {III-A}}アクティブ骨導音センシング}{1}}
\@writefile{toc}{\contentsline {subsection}{\numberline {\unhbox \voidb@x \hbox {III-B}}手先位置推定装置}{1}}
\@writefile{toc}{\contentsline {subsection}{\numberline {\unhbox \voidb@x \hbox {III-C}}推定用入力振動}{1}}
\@writefile{toc}{\contentsline {subsection}{\numberline {\unhbox \voidb@x \hbox {III-D}}機械学習を用いた手先位置推定}{1}}
\@writefile{toc}{\contentsline {subsection}{\numberline {\unhbox \voidb@x \hbox {III-E}}アプリケーション}{1}}
\@writefile{toc}{\contentsline {section}{\numberline {IV}精度評価実験}{1}}
\@writefile{toc}{\contentsline {subsection}{\numberline {\unhbox \voidb@x \hbox {IV-A}}実験環境}{1}}
\@writefile{toc}{\contentsline {subsection}{\numberline {\unhbox \voidb@x \hbox {IV-B}}各スペクトルごとの比較実験}{1}}
\@writefile{toc}{\contentsline {subsection}{\numberline {\unhbox \voidb@x \hbox {IV-C}}機械学習手法ごとorカーネルごとの比較}{1}}
\@writefile{toc}{\contentsline {subsection}{\numberline {\unhbox \voidb@x \hbox {IV-D}}精度とトレーニングデータ数の関係}{1}}
\@writefile{toc}{\contentsline {subsection}{\numberline {\unhbox \voidb@x \hbox {IV-E}}手先位置推定の精度評価}{1}}
\@writefile{toc}{\contentsline {section}{\numberline {V}まとめ}{1}}
\@writefile{toc}{\contentsline {section}{\numberline {VI}Introduction}{1}}
\@writefile{toc}{\contentsline {section}{\numberline {VII}Ease of Use}{2}}
\@writefile{toc}{\contentsline {subsection}{\numberline {\unhbox \voidb@x \hbox {VII-A}}Maintaining the Integrity of the Specifications}{2}}
\@writefile{toc}{\contentsline {section}{\numberline {VIII}Prepare Your Paper Before Styling}{2}}
\@writefile{toc}{\contentsline {subsection}{\numberline {\unhbox \voidb@x \hbox {VIII-A}}Abbreviations and Acronyms}{2}}
\newlabel{AA}{{\unhbox \voidb@x \hbox {VIII-A}}{2}}
\@writefile{toc}{\contentsline {subsection}{\numberline {\unhbox \voidb@x \hbox {VIII-B}}Units}{2}}
\@writefile{toc}{\contentsline {subsection}{\numberline {\unhbox \voidb@x \hbox {VIII-C}}Equations}{2}}
\newlabel{eq}{{1}{2}}
\@writefile{toc}{\contentsline {subsection}{\numberline {\unhbox \voidb@x \hbox {VIII-D}}\LaTeX  -Specific Advice}{2}}
\@writefile{toc}{\contentsline {subsection}{\numberline {\unhbox \voidb@x \hbox {VIII-E}}Some Common Mistakes}{2}}
\newlabel{SCM}{{\unhbox \voidb@x \hbox {VIII-E}}{2}}
\citation{b7}
\citation{b1}
\citation{b2}
\citation{b3}
\citation{b3}
\citation{b3}
\citation{b3}
\citation{b4}
\citation{b5}
\citation{b6}
\bibcite{b1}{1}
\bibcite{b2}{2}
\bibcite{b3}{3}
\@writefile{toc}{\contentsline {subsection}{\numberline {\unhbox \voidb@x \hbox {VIII-F}}Authors and Affiliations}{3}}
\@writefile{toc}{\contentsline {subsection}{\numberline {\unhbox \voidb@x \hbox {VIII-G}}Identify the Headings}{3}}
\@writefile{toc}{\contentsline {subsection}{\numberline {\unhbox \voidb@x \hbox {VIII-H}}Figures and Tables}{3}}
\@writefile{toc}{\contentsline {paragraph}{\numberline {\unhbox \voidb@x \hbox {VIII-H}0a}Positioning Figures and Tables}{3}}
\@writefile{lot}{\contentsline {table}{\numberline {I}{\ignorespaces Table Type Styles}}{3}}
\newlabel{tab1}{{I}{3}}
\@writefile{lof}{\contentsline {figure}{\numberline {1}{\ignorespaces Example of a figure caption.}}{3}}
\newlabel{fig}{{1}{3}}
\@writefile{toc}{\contentsline {section}{References}{3}}
\bibcite{b4}{4}
\bibcite{b5}{5}
\bibcite{b6}{6}
\bibcite{b7}{7}
